{"name":"initialTest","id":"SerenityBddTests:initialTest","testCaseName":"SerenityBddTests","testSteps":[{"number":1,"description":"Julian the trainer executes a GET on the resource /users?page\u003d2","duration":6654,"startTime":"2019-04-07T07:36:24.554-05:00[America/Bogota]","result":"SUCCESS","precondition":false,"children":[{"number":2,"description":"GET http://localhost:5000/api/users?page\u003d2","duration":2,"startTime":"2019-04-07T07:36:31.194-05:00[America/Bogota]","result":"SUCCESS","restQuery":{"method":"GET","path":"http://localhost:5000/api/users?page\u003d2","content":"","contentType":"null","requestHeaders":"Accept\u003d*/*","requestCookies":"","responseHeaders":"X-Powered-By: Express\nAccess-Control-Allow-Origin: *\nContent-Type: application/json; charset\u003dutf-8\nContent-Length: 540\nETag: W/\"21c-V3l8h04l5/8zLV+i3u8GJo8G3Y8\"\nDate: Sun, 07 Apr 2019 12:36:30 GMT\nConnection: keep-alive","responseCookies":"","responseBody":"{\n    \"page\": 2,\n    \"per_page\": 3,\n    \"total\": 12,\n    \"total_pages\": 4,\n    \"data\": [\n        {\n            \"id\": 4,\n            \"email\": \"eve.holt@reqres.in\",\n            \"first_name\": \"Eve\",\n            \"last_name\": \"Holt\",\n            \"avatar\": \"https://s3.amazonaws.com/uifaces/faces/twitter/marcoramires/128.jpg\"\n        },\n        {\n            \"id\": 5,\n            \"email\": \"charles.morris@reqres.in\",\n            \"first_name\": \"Charles\",\n            \"last_name\": \"Morris\",\n            \"avatar\": \"https://s3.amazonaws.com/uifaces/faces/twitter/stephenmoon/128.jpg\"\n        },\n        {\n            \"id\": 6,\n            \"email\": \"tracey.ramos@reqres.in\",\n            \"first_name\": \"Tracey\",\n            \"last_name\": \"Ramos\",\n            \"avatar\": \"https://s3.amazonaws.com/uifaces/faces/twitter/bigmancho/128.jpg\"\n        }\n    ]\n}","statusCode":200},"precondition":false}]}],"userStory":{"id":"SerenityBddTests","storyName":"Serenity bdd tests","storyClassName":"SerenityBddTests","path":"","type":"story"},"featureTag":{"name":"Serenity bdd tests","type":"story"},"title":"Initial test","tags":[{"name":"Serenity bdd tests","type":"story"}],"startTime":"2019-04-07T07:36:24.022-05:00[America/Bogota]","duration":7354,"projectKey":"","manual":false,"testSource":"JUnit","actors":[{"name":"Julian the trainer","can":["call an API at http://localhost:5000/api"]}],"result":"SUCCESS"}