{"name":"initialTest","id":"com.testautomation.mesaj.SerenityBddTest:initialTest","testCaseName":"com.testautomation.mesaj.SerenityBddTest","testSteps":[{"number":1,"description":"Julian the trainer executes a GET on the resource /users?page\u003d1","duration":84,"startTime":"2019-07-07T18:44:41.016-05:00[America/Bogota]","result":"SUCCESS","precondition":false,"children":[{"number":2,"description":"GET http://localhost:5000/api/users?page\u003d1","duration":1,"startTime":"2019-07-07T18:44:41.099-05:00[America/Bogota]","result":"SUCCESS","restQuery":{"method":"GET","path":"http://localhost:5000/api/users?page\u003d1","content":"","contentType":"application/json","requestHeaders":"header1\u003dvalue1\n\t\t\t\tAccept\u003d*/*\n\t\t\t\tContent-Type\u003dapplication/json; charset\u003dUTF-8","requestCookies":"","responseHeaders":"X-Powered-By: Express\nAccess-Control-Allow-Origin: *\nContent-Type: application/json; charset\u003dutf-8\nContent-Length: 539\nETag: W/\"21b-fFOA+z2p0qqZtiTcYG5d6jtK5Cs\"\nDate: Sun, 07 Jul 2019 23:44:41 GMT\nConnection: keep-alive","responseCookies":"","responseBody":"{\n    \"page\": 1,\n    \"per_page\": 3,\n    \"total\": 12,\n    \"total_pages\": 4,\n    \"data\": [\n        {\n            \"id\": 1,\n            \"email\": \"george.bluth@reqres.in\",\n            \"first_name\": \"George\",\n            \"last_name\": \"Bluth\",\n            \"avatar\": \"https://s3.amazonaws.com/uifaces/faces/twitter/calebogden/128.jpg\"\n        },\n        {\n            \"id\": 2,\n            \"email\": \"janet.weaver@reqres.in\",\n            \"first_name\": \"Janet\",\n            \"last_name\": \"Weaver\",\n            \"avatar\": \"https://s3.amazonaws.com/uifaces/faces/twitter/josephstein/128.jpg\"\n        },\n        {\n            \"id\": 3,\n            \"email\": \"emma.wong@reqres.in\",\n            \"first_name\": \"Emma\",\n            \"last_name\": \"Wong\",\n            \"avatar\": \"https://s3.amazonaws.com/uifaces/faces/twitter/olegpogodaev/128.jpg\"\n        }\n    ]\n}","statusCode":200},"precondition":false}]},{"number":3,"description":"Then el codigo de respuesta should be (200)","duration":0,"startTime":"2019-07-07T18:44:41.105-05:00[America/Bogota]","result":"SUCCESS","precondition":false},{"number":4,"description":"Then usuario no es nulo should be not null","duration":0,"startTime":"2019-07-07T18:44:41.162-05:00[America/Bogota]","result":"SUCCESS","precondition":false},{"number":5,"description":"Then el email del usuario should be \u0027george.bluth@reqres.in\u0027","duration":0,"startTime":"2019-07-07T18:44:41.166-05:00[America/Bogota]","result":"SUCCESS","precondition":false},{"number":6,"description":"Then el avatar del usuario should be \u0027avatar\u0027","duration":8,"startTime":"2019-07-07T18:44:41.168-05:00[America/Bogota]","exception":{"errorType":"java.lang.AssertionError","message":"\nExpected: \"avatar\"\n     but: was \"https://s3.amazonaws.com/uifaces/faces/twitter/calebogden/128.jpg\"","stackTrace":[{"declaringClass":"com.testautomation.mesaj.SerenityBddTest","methodName":"initialTest","fileName":"SerenityBddTest.java","lineNumber":47}]},"result":"FAILURE","precondition":false}],"userStory":{"id":"com.testautomation.mesaj.SerenityBddTest","storyName":"Serenity bdd test","storyClassName":"com.testautomation.mesaj.SerenityBddTest","path":"com.testautomation.mesaj","type":"story"},"featureTag":{"name":"Mesaj/Serenity bdd test","type":"story"},"title":"Initial test","tags":[{"name":"Mesaj/Serenity bdd test","type":"story"}],"startTime":"2019-07-07T18:44:40.976-05:00[America/Bogota]","duration":212,"testFailureCause":{"errorType":"java.lang.AssertionError","message":"\nExpected: \"avatar\"\n     but: was \"https://s3.amazonaws.com/uifaces/faces/twitter/calebogden/128.jpg\"","stackTrace":[{"declaringClass":"com.testautomation.mesaj.SerenityBddTest","methodName":"initialTest","fileName":"SerenityBddTest.java","lineNumber":47}]},"testFailureClassname":"java.lang.AssertionError","testFailureMessage":"\nExpected: \"avatar\"\n     but: was \"https://s3.amazonaws.com/uifaces/faces/twitter/calebogden/128.jpg\"","testFailureSummary":"FAILURE;java.lang.AssertionError;\nExpected: \"avatar\"\n     but: was \"https://s3.amazonaws.com/uifaces/faces/twitter/calebogden/128.jpg\";SerenityBddTest.java","projectKey":"","annotatedResult":"FAILURE","manual":false,"testSource":"JUnit","actors":[{"name":"Julian the trainer","can":["call an API at http://localhost:5000/api"]}],"result":"FAILURE"}